{
  "appKey": "",
  "appSecret": "",
  "encryptJs": true,
  "excludeScenes": [],
  "includeAnySDK": false,
  "includeSDKBox": false,
  "inlineSpriteFrames": true,
  "inlineSpriteFrames_native": true,
  "jailbreakPlatform": false,
  "md5Cache": false,
  "mergeStartScene": false,
  "oauthLoginServer": "",
  "optimizeHotUpdate": false,
  "orientation": {
    "landscapeLeft": false,
    "landscapeRight": false,
    "portrait": true,
    "upsideDown": false
  },
  "packageName": "com.h102.dancinglighting",
  "privateKey": "",
  "renderMode": "0",
  "startScene": "7ca69bbd-541a-43e0-abc7-4c581dca5c73",
  "title": "DancingLighting",
  "webOrientation": "portrait",
  "xxteaKey": "aef3f234-50af-4c"
}